Channel Name,FR_COMPANY_TOKEN
Technology,C:MicrosoftCorporation
Technology,C:AppleInc
Technology,C:GoogleInc
Technology,C:AlphabetInc 
Technology,C:GoogleInc
History Token Channels,C:DaimlerChryslerCanadaInc
History Token Channels,C:BayerischeMotorenWerkeAG
